FIRMWARE_VER:8.1
MACHINE_MODEL:RK3308
MACHINE_ID:007
MANUFACTURER: RK3308
MAGIC: 0x5041524B
ATAG: 0x00200800
MACHINE: 3308
CHECK_MASK: 0x80
PWR_HLD: 0,0,A,0,1
TYPE: GPT
CMDLINE:mtdparts=rk29xxnand:0x00001000@0x00002000(uboot),0x00001000@0x00003000(trust),0x00000800@0x00004000(misc),0x00010000@0x00004800(recovery),0x00004800@0x00014800(boot),0x00080000@0x00020000(rootfs),0x00020000@0x000A0000(oem),-@0x00C0000(userdata:grow)
uuid:rootfs=614e0000-0000-4b53-8000-1d28000054a9
